{
  "manifest": {
    "publishingInformation": {
      "locales": {
        "de-DE": {
          "summary": "Metronom zum Üben von Musikinstrumenten",
          "examplePhrases": [
            "Alexa, starte Metronom mit der Geschwindigkeit von 120 bpm",
            "Alexa, frage Metronom ob es die Geschwindigkeit stark erhöhen kann",
            "Alexa, frage Metronom ob es das Tempo auf 200 bpm ändern kann."
          ],
          "keywords": [
            "Audio Stream",
            "Musik",
            "Übungsstunde",
            "Üben",
            "Musik üben",
            "Musik-Training",
            "Takt",
            "Taktgeber",
            "Metronom",
            "Beat",
            "Rhythmus"
          ],
          "name": "Metronom",
          "smallIconUri": "https://s3-eu-west-1.amazonaws.com/arumpf-metronom-skill/logo/logo_108.png",
          "description": "Metronom, das den gleichen Ton wiederholt abspielt. So kannst du Üben den Takt zu halten.",
          "largeIconUri": "https://s3-eu-west-1.amazonaws.com/arumpf-metronom-skill/logo/logo_512.png"
        }
      },
      "isAvailableWorldwide": true,
      "testingInstructions": "Start the skill with \"Alexa, starte Metronom\". Say a numeric value between 20 and 240 bpm. The values are only working with the unit. You can change the metronom speed by saying \"Alexa, frage Metronom ob es die Geschwindigkeit auf 200 bpm einstellen kann\". If you want to know the current tempo ask \"Alexa, frage Metronom wie schnell es eingestellt ist.\" ",
      "category": "STREAMING_SERVICE",
      "distributionCountries": []
    },
    "apis": {
      "custom": {
        "endpoint": {
          "sourceDir": "./lambda/custom"
        },
        "interfaces": [
          {
            "type": "AUDIO_PLAYER"
          }
        ]
      }
    },
    "manifestVersion": "1.0",
    "permissions": [],
    "privacyAndCompliance": {
      "allowsPurchases": false,
      "isExportCompliant": true,
      "containsAds": false,
      "isChildDirected": false,
      "usesPersonalInfo": false
    }
  }
}