{
  "interactionModel": {
    "languageModel": {
      "invocationName": "metronom",
      "intents": [
        {
          "name": "StartMetronomIntent",
          "slots": [
            {
              "name": "tempo",
              "type": "AMAZON.NUMBER",
              "samples": [
                "{tempo}",
                "{tempo} bpm",
                "{tempo} b. p. m.",
                "{tempo} Beats per minute",
                "{tempo} Schläge pro Minute",
                "{tempo} Schläge per Minute"
              ]
            }
          ],
          "samples": [
            "auf Geschwindigkeit {tempo}",
            "auf Geschwindigkeit {tempo} b. p. m.",
            "auf Geschwindigkeit {tempo} beats per minute",
            "auf Geschwindigkeit {tempo} beats pro minute",
            "auf Geschwindigkeit {tempo} bpm",
            "auf Geschwindigkeit {tempo} schläge per minute",
            "auf Geschwindigkeit {tempo} schläge pro minute",
            "auf Tempo {tempo}",
            "auf Tempo {tempo} b. p. m.",
            "auf Tempo {tempo} beats per minute",
            "auf Tempo {tempo} beats pro minute",
            "auf Tempo {tempo} bpm",
            "auf Tempo {tempo} schläge per minute",
            "auf Tempo {tempo} schläge pro minute",
            "auf dem Tempo {tempo}",
            "auf dem Tempo {tempo} b. p. m.",
            "auf dem Tempo {tempo} beats per minute",
            "auf dem Tempo {tempo} beats pro minute",
            "auf dem Tempo {tempo} bpm",
            "auf dem Tempo {tempo} schläge per minute",
            "auf dem Tempo {tempo} schläge pro minute",
            "auf der Geschwindigkeit {tempo}",
            "auf der Geschwindigkeit {tempo} b. p. m.",
            "auf der Geschwindigkeit {tempo} beats per minute",
            "auf der Geschwindigkeit {tempo} beats pro minute",
            "auf der Geschwindigkeit {tempo} bpm",
            "auf der Geschwindigkeit {tempo} schläge per minute",
            "auf der Geschwindigkeit {tempo} schläge pro minute",
            "auf {tempo}",
            "auf {tempo} b. p. m.",
            "auf {tempo} beats per minute",
            "auf {tempo} beats pro minute",
            "auf {tempo} bpm",
            "auf {tempo} schläge per minute",
            "auf {tempo} schläge pro minute",
            "mit Geschwindigkeit {tempo}",
            "mit Geschwindigkeit {tempo} b. p. m.",
            "mit Geschwindigkeit {tempo} beats per minute",
            "mit Geschwindigkeit {tempo} beats pro minute",
            "mit Geschwindigkeit {tempo} bpm",
            "mit Geschwindigkeit {tempo} schläge per minute",
            "mit Geschwindigkeit {tempo} schläge pro minute",
            "mit Tempo {tempo}",
            "mit Tempo {tempo} b. p. m.",
            "mit Tempo {tempo} beats per minute",
            "mit Tempo {tempo} beats pro minute",
            "mit Tempo {tempo} bpm",
            "mit Tempo {tempo} schläge per minute",
            "mit Tempo {tempo} schläge pro minute",
            "mit dem Tempo {tempo}",
            "mit dem Tempo {tempo} b. p. m.",
            "mit dem Tempo {tempo} beats per minute",
            "mit dem Tempo {tempo} beats pro minute",
            "mit dem Tempo {tempo} bpm",
            "mit dem Tempo {tempo} schläge per minute",
            "mit dem Tempo {tempo} schläge pro minute",
            "mit der Geschwindigkeit {tempo}",
            "mit der Geschwindigkeit {tempo} b. p. m.",
            "mit der Geschwindigkeit {tempo} beats per minute",
            "mit der Geschwindigkeit {tempo} beats pro minute",
            "mit der Geschwindigkeit {tempo} bpm",
            "mit der Geschwindigkeit {tempo} schläge per minute",
            "mit der Geschwindigkeit {tempo} schläge pro minute",
            "mit einem Tempo von {tempo}",
            "mit einer Geschwindigkeit von {tempo}",
            "mit {tempo}",
            "mit {tempo} b. p. m.",
            "mit {tempo} beats per minute",
            "mit {tempo} beats pro minute",
            "mit {tempo} bpm",
            "mit {tempo} schläge per minute",
            "mit {tempo} schläge pro minute"
          ]
        },
        {
          "name": "AMAZON.PauseIntent",
          "samples": []
        },
        {
          "name": "AMAZON.ResumeIntent",
          "samples": []
        },
        {
          "name": "AMAZON.HelpIntent",
          "samples": [
            "Hilf mir",
            "Wie funktioniert das",
            "Was soll ich tun",
            "Help",
            "Ich brauche Hilfe",
            "Ich brauche Unterstützung",
            "Ich brauche deine Hilfe",
            "Ich brauche deine Unterstützung",
            "Ich brauche mal Hilfe",
            "Ich brauche mal Unterstützung",
            "brauche Hilfe",
            "brauche Unterstützung",
            "brauche deine Hilfe",
            "brauche deine Unterstützung",
            "brauche mal Hilfe",
            "brauche mal Unterstützung"
          ]
        },
        {
          "name": "AMAZON.StopIntent",
          "samples": []
        },
        {
          "name": "AMAZON.CancelIntent",
          "samples": []
        },
        {
          "name": "AMAZON.StartOverIntent",
          "samples": []
        },
        {
          "name": "AMAZON.ShuffleOnIntent",
          "samples": []
        },
        {
          "name": "AMAZON.ShuffleOffIntent",
          "samples": []
        },
        {
          "name": "AMAZON.RepeatIntent",
          "samples": []
        },
        {
          "name": "AMAZON.PreviousIntent",
          "samples": []
        },
        {
          "name": "AMAZON.NextIntent",
          "samples": []
        },
        {
          "name": "AMAZON.LoopOnIntent",
          "samples": []
        },
        {
          "name": "AMAZON.LoopOffIntent",
          "samples": []
        },
        {
          "name": "AMAZON.YesIntent",
          "samples": []
        },
        {
          "name": "AMAZON.NoIntent",
          "samples": []
        },
        {
          "name": "GetTempoIntent",
          "slots": [],
          "samples": [
            "was für ein Takt",
            "was für ein Takt hat",
            "was für ein Takt macht",
            "was für eine Geschwindigkeit",
            "was für eine Geschwindigkeit hat",
            "was für eine Geschwindigkeit macht",
            "welche Geschwindigkeit",
            "welche Geschwindigkeit das",
            "welche Geschwindigkeit das gespeichert hat",
            "welche Geschwindigkeit das hat",
            "welche Geschwindigkeit das ist eingestellt",
            "welche Geschwindigkeit es",
            "welche Geschwindigkeit es gespeichert hat",
            "welche Geschwindigkeit es hat",
            "welche Geschwindigkeit es ist eingestellt",
            "welche Geschwindigkeit gespeichert hat",
            "welche Geschwindigkeit hat",
            "welche Geschwindigkeit ist eingestellt",
            "welches Tempo",
            "welches Tempo das",
            "welches Tempo das gespeichert hat",
            "welches Tempo das hat",
            "welches Tempo das ist eingestellt",
            "welches Tempo es",
            "welches Tempo es gespeichert hat",
            "welches Tempo es hat",
            "welches Tempo es ist eingestellt",
            "welches Tempo gespeichert hat",
            "welches Tempo hat",
            "welches Tempo ist eingestellt",
            "wie das eingestellt",
            "wie das eingestellt ist",
            "wie das eingestellt war",
            "wie das ist",
            "wie das spielt",
            "wie das spielt ist",
            "wie das spielt war",
            "wie das war",
            "wie eingestellt",
            "wie eingestellt ist",
            "wie eingestellt war",
            "wie es eingestellt",
            "wie es eingestellt ist",
            "wie es eingestellt war",
            "wie es spielt",
            "wie es spielt ist",
            "wie es spielt war",
            "wie langsam das",
            "wie langsam das eingestellt",
            "wie langsam das eingestellt ist",
            "wie langsam das eingestellt war",
            "wie langsam das ist",
            "wie langsam das spielt",
            "wie langsam das spielt ist",
            "wie langsam das spielt war",
            "wie langsam das war",
            "wie langsam eingestellt",
            "wie langsam eingestellt ist",
            "wie langsam eingestellt war",
            "wie langsam es eingestellt",
            "wie langsam es eingestellt ist",
            "wie langsam es eingestellt war",
            "wie langsam es ist",
            "wie langsam es spielt",
            "wie langsam es spielt ist",
            "wie langsam es spielt war",
            "wie langsam es war",
            "wie langsam ist",
            "wie langsam spielt",
            "wie langsam spielt ist",
            "wie langsam spielt war",
            "wie langsam war",
            "wie schnell",
            "wie schnell das",
            "wie schnell das eingestellt",
            "wie schnell das eingestellt ist",
            "wie schnell das eingestellt war",
            "wie schnell das ist",
            "wie schnell das spielt",
            "wie schnell das spielt ist",
            "wie schnell das spielt war",
            "wie schnell das war",
            "wie schnell eingestellt",
            "wie schnell eingestellt ist",
            "wie schnell eingestellt war",
            "wie schnell es",
            "wie schnell es eingestellt",
            "wie schnell es eingestellt ist",
            "wie schnell es eingestellt war",
            "wie schnell es ist",
            "wie schnell es spielt",
            "wie schnell es spielt ist",
            "wie schnell es spielt war",
            "wie schnell es war",
            "wie schnell ist",
            "wie schnell spielt",
            "wie schnell spielt ist",
            "wie schnell spielt war",
            "wie schnell war",
            "wie spielt ist",
            "wie spielt war",
            "wie viel b. p. m.",
            "wie viel b. p. m. das",
            "wie viel b. p. m. das eingestellt hat",
            "wie viel b. p. m. das eingestellt sind",
            "wie viel b. p. m. das sind eingestellt",
            "wie viel b. p. m. das spielt",
            "wie viel b. p. m. eingestellt hat",
            "wie viel b. p. m. eingestellt sind",
            "wie viel b. p. m. es",
            "wie viel b. p. m. es eingestellt hat",
            "wie viel b. p. m. es eingestellt sind",
            "wie viel b. p. m. es sind eingestellt",
            "wie viel b. p. m. es spielt",
            "wie viel b. p. m. sind eingestellt",
            "wie viel b. p. m. spielt",
            "wie viel beats per minute",
            "wie viel beats per minute das",
            "wie viel beats per minute das eingestellt hat",
            "wie viel beats per minute das eingestellt sind",
            "wie viel beats per minute das sind eingestellt",
            "wie viel beats per minute das spielt",
            "wie viel beats per minute eingestellt hat",
            "wie viel beats per minute eingestellt sind",
            "wie viel beats per minute es",
            "wie viel beats per minute es eingestellt hat",
            "wie viel beats per minute es eingestellt sind",
            "wie viel beats per minute es sind eingestellt",
            "wie viel beats per minute es spielt",
            "wie viel beats per minute sind eingestellt",
            "wie viel beats per minute spielt",
            "wie viel beats pro minute",
            "wie viel beats pro minute das",
            "wie viel beats pro minute das eingestellt hat",
            "wie viel beats pro minute das eingestellt sind",
            "wie viel beats pro minute das sind eingestellt",
            "wie viel beats pro minute das spielt",
            "wie viel beats pro minute eingestellt hat",
            "wie viel beats pro minute eingestellt sind",
            "wie viel beats pro minute es",
            "wie viel beats pro minute es eingestellt hat",
            "wie viel beats pro minute es eingestellt sind",
            "wie viel beats pro minute es sind eingestellt",
            "wie viel beats pro minute es spielt",
            "wie viel beats pro minute sind eingestellt",
            "wie viel beats pro minute spielt",
            "wie viel bpm",
            "wie viel bpm das",
            "wie viel bpm das eingestellt hat",
            "wie viel bpm das eingestellt sind",
            "wie viel bpm das sind eingestellt",
            "wie viel bpm das spielt",
            "wie viel bpm eingestellt hat",
            "wie viel bpm eingestellt sind",
            "wie viel bpm es",
            "wie viel bpm es eingestellt hat",
            "wie viel bpm es eingestellt sind",
            "wie viel bpm es sind eingestellt",
            "wie viel bpm es spielt",
            "wie viel bpm sind eingestellt",
            "wie viel bpm spielt",
            "wie viel das eingestellt hat",
            "wie viel das eingestellt sind",
            "wie viel das sind eingestellt",
            "wie viel das spielt",
            "wie viel eingestellt hat",
            "wie viel eingestellt sind",
            "wie viel es eingestellt hat",
            "wie viel es eingestellt sind",
            "wie viel es sind eingestellt",
            "wie viel es spielt",
            "wie viel schläge per minute",
            "wie viel schläge per minute das",
            "wie viel schläge per minute das eingestellt hat",
            "wie viel schläge per minute das eingestellt sind",
            "wie viel schläge per minute das sind eingestellt",
            "wie viel schläge per minute das spielt",
            "wie viel schläge per minute eingestellt hat",
            "wie viel schläge per minute eingestellt sind",
            "wie viel schläge per minute es",
            "wie viel schläge per minute es eingestellt hat",
            "wie viel schläge per minute es eingestellt sind",
            "wie viel schläge per minute es sind eingestellt",
            "wie viel schläge per minute es spielt",
            "wie viel schläge per minute sind eingestellt",
            "wie viel schläge per minute spielt",
            "wie viel schläge pro minute",
            "wie viel schläge pro minute das",
            "wie viel schläge pro minute das eingestellt hat",
            "wie viel schläge pro minute das eingestellt sind",
            "wie viel schläge pro minute das sind eingestellt",
            "wie viel schläge pro minute das spielt",
            "wie viel schläge pro minute eingestellt hat",
            "wie viel schläge pro minute eingestellt sind",
            "wie viel schläge pro minute es",
            "wie viel schläge pro minute es eingestellt hat",
            "wie viel schläge pro minute es eingestellt sind",
            "wie viel schläge pro minute es sind eingestellt",
            "wie viel schläge pro minute es spielt",
            "wie viel schläge pro minute sind eingestellt",
            "wie viel schläge pro minute spielt",
            "wie viel sind eingestellt",
            "wie viel spielt"
          ]
        },
        {
          "name": "ChangeTempoToIntent",
          "slots": [
            {
              "name": "tempo",
              "type": "AMAZON.NUMBER",
              "samples": [
                "{tempo} bpm",
                "{tempo} b. p. m.",
                "{tempo}",
                "{tempo} Beats per minute",
                "{tempo} Schläge pro Minute",
                "{tempo} Schläge per Minute"
              ]
            }
          ],
          "samples": [
            "ob das das Tempo auf {tempo} anpassen kann",
            "ob das das Tempo auf {tempo} b. p. m. anpassen kann",
            "ob das das Tempo auf {tempo} b. p. m. einstellen kann",
            "ob das das Tempo auf {tempo} b. p. m. verändern kann",
            "ob das das Tempo auf {tempo} b. p. m. ändern kann",
            "ob das das Tempo auf {tempo} beats per minute anpassen kann",
            "ob das das Tempo auf {tempo} beats per minute einstellen kann",
            "ob das das Tempo auf {tempo} beats per minute verändern kann",
            "ob das das Tempo auf {tempo} beats per minute ändern kann",
            "ob das das Tempo auf {tempo} beats pro minute anpassen kann",
            "ob das das Tempo auf {tempo} beats pro minute einstellen kann",
            "ob das das Tempo auf {tempo} beats pro minute verändern kann",
            "ob das das Tempo auf {tempo} beats pro minute ändern kann",
            "ob das das Tempo auf {tempo} bpm anpassen kann",
            "ob das das Tempo auf {tempo} bpm einstellen kann",
            "ob das das Tempo auf {tempo} bpm verändern kann",
            "ob das das Tempo auf {tempo} bpm ändern kann",
            "ob das das Tempo auf {tempo} einstellen kann",
            "ob das das Tempo auf {tempo} schläge per minute anpassen kann",
            "ob das das Tempo auf {tempo} schläge per minute einstellen kann",
            "ob das das Tempo auf {tempo} schläge per minute verändern kann",
            "ob das das Tempo auf {tempo} schläge per minute ändern kann",
            "ob das das Tempo auf {tempo} schläge pro minute anpassen kann",
            "ob das das Tempo auf {tempo} schläge pro minute einstellen kann",
            "ob das das Tempo auf {tempo} schläge pro minute verändern kann",
            "ob das das Tempo auf {tempo} schläge pro minute ändern kann",
            "ob das das Tempo auf {tempo} verändern kann",
            "ob das das Tempo auf {tempo} ändern kann",
            "ob das die Geschwindigkeit auf {tempo} anpassen kann",
            "ob das die Geschwindigkeit auf {tempo} b. p. m. anpassen kann",
            "ob das die Geschwindigkeit auf {tempo} b. p. m. einstellen kann",
            "ob das die Geschwindigkeit auf {tempo} b. p. m. verändern kann",
            "ob das die Geschwindigkeit auf {tempo} b. p. m. ändern kann",
            "ob das die Geschwindigkeit auf {tempo} beats per minute anpassen kann",
            "ob das die Geschwindigkeit auf {tempo} beats per minute einstellen kann",
            "ob das die Geschwindigkeit auf {tempo} beats per minute verändern kann",
            "ob das die Geschwindigkeit auf {tempo} beats per minute ändern kann",
            "ob das die Geschwindigkeit auf {tempo} beats pro minute anpassen kann",
            "ob das die Geschwindigkeit auf {tempo} beats pro minute einstellen kann",
            "ob das die Geschwindigkeit auf {tempo} beats pro minute verändern kann",
            "ob das die Geschwindigkeit auf {tempo} beats pro minute ändern kann",
            "ob das die Geschwindigkeit auf {tempo} bpm anpassen kann",
            "ob das die Geschwindigkeit auf {tempo} bpm einstellen kann",
            "ob das die Geschwindigkeit auf {tempo} bpm verändern kann",
            "ob das die Geschwindigkeit auf {tempo} bpm ändern kann",
            "ob das die Geschwindigkeit auf {tempo} einstellen kann",
            "ob das die Geschwindigkeit auf {tempo} schläge per minute anpassen kann",
            "ob das die Geschwindigkeit auf {tempo} schläge per minute einstellen kann",
            "ob das die Geschwindigkeit auf {tempo} schläge per minute verändern kann",
            "ob das die Geschwindigkeit auf {tempo} schläge per minute ändern kann",
            "ob das die Geschwindigkeit auf {tempo} schläge pro minute anpassen kann",
            "ob das die Geschwindigkeit auf {tempo} schläge pro minute einstellen kann",
            "ob das die Geschwindigkeit auf {tempo} schläge pro minute verändern kann",
            "ob das die Geschwindigkeit auf {tempo} schläge pro minute ändern kann",
            "ob das die Geschwindigkeit auf {tempo} verändern kann",
            "ob das die Geschwindigkeit auf {tempo} ändern kann",
            "ob es das Tempo auf {tempo} anpassen kann",
            "ob es das Tempo auf {tempo} b. p. m. anpassen kann",
            "ob es das Tempo auf {tempo} b. p. m. einstellen kann",
            "ob es das Tempo auf {tempo} b. p. m. verändern kann",
            "ob es das Tempo auf {tempo} b. p. m. ändern kann",
            "ob es das Tempo auf {tempo} beats per minute anpassen kann",
            "ob es das Tempo auf {tempo} beats per minute einstellen kann",
            "ob es das Tempo auf {tempo} beats per minute verändern kann",
            "ob es das Tempo auf {tempo} beats per minute ändern kann",
            "ob es das Tempo auf {tempo} beats pro minute anpassen kann",
            "ob es das Tempo auf {tempo} beats pro minute einstellen kann",
            "ob es das Tempo auf {tempo} beats pro minute verändern kann",
            "ob es das Tempo auf {tempo} beats pro minute ändern kann",
            "ob es das Tempo auf {tempo} bpm anpassen kann",
            "ob es das Tempo auf {tempo} bpm einstellen kann",
            "ob es das Tempo auf {tempo} bpm verändern kann",
            "ob es das Tempo auf {tempo} bpm ändern kann",
            "ob es das Tempo auf {tempo} einstellen kann",
            "ob es das Tempo auf {tempo} schläge per minute anpassen kann",
            "ob es das Tempo auf {tempo} schläge per minute einstellen kann",
            "ob es das Tempo auf {tempo} schläge per minute verändern kann",
            "ob es das Tempo auf {tempo} schläge per minute ändern kann",
            "ob es das Tempo auf {tempo} schläge pro minute anpassen kann",
            "ob es das Tempo auf {tempo} schläge pro minute einstellen kann",
            "ob es das Tempo auf {tempo} schläge pro minute verändern kann",
            "ob es das Tempo auf {tempo} schläge pro minute ändern kann",
            "ob es das Tempo auf {tempo} verändern kann",
            "ob es das Tempo auf {tempo} ändern kann",
            "ob es die Geschwindigkeit auf {tempo} anpassen kann",
            "ob es die Geschwindigkeit auf {tempo} b. p. m. anpassen kann",
            "ob es die Geschwindigkeit auf {tempo} b. p. m. einstellen kann",
            "ob es die Geschwindigkeit auf {tempo} b. p. m. verändern kann",
            "ob es die Geschwindigkeit auf {tempo} b. p. m. ändern kann",
            "ob es die Geschwindigkeit auf {tempo} beats per minute anpassen kann",
            "ob es die Geschwindigkeit auf {tempo} beats per minute einstellen kann",
            "ob es die Geschwindigkeit auf {tempo} beats per minute verändern kann",
            "ob es die Geschwindigkeit auf {tempo} beats per minute ändern kann",
            "ob es die Geschwindigkeit auf {tempo} beats pro minute anpassen kann",
            "ob es die Geschwindigkeit auf {tempo} beats pro minute einstellen kann",
            "ob es die Geschwindigkeit auf {tempo} beats pro minute verändern kann",
            "ob es die Geschwindigkeit auf {tempo} beats pro minute ändern kann",
            "ob es die Geschwindigkeit auf {tempo} bpm anpassen kann",
            "ob es die Geschwindigkeit auf {tempo} bpm einstellen kann",
            "ob es die Geschwindigkeit auf {tempo} bpm verändern kann",
            "ob es die Geschwindigkeit auf {tempo} bpm ändern kann",
            "ob es die Geschwindigkeit auf {tempo} einstellen kann",
            "ob es die Geschwindigkeit auf {tempo} schläge per minute anpassen kann",
            "ob es die Geschwindigkeit auf {tempo} schläge per minute einstellen kann",
            "ob es die Geschwindigkeit auf {tempo} schläge per minute verändern kann",
            "ob es die Geschwindigkeit auf {tempo} schläge per minute ändern kann",
            "ob es die Geschwindigkeit auf {tempo} schläge pro minute anpassen kann",
            "ob es die Geschwindigkeit auf {tempo} schläge pro minute einstellen kann",
            "ob es die Geschwindigkeit auf {tempo} schläge pro minute verändern kann",
            "ob es die Geschwindigkeit auf {tempo} schläge pro minute ändern kann",
            "ob es die Geschwindigkeit auf {tempo} verändern kann",
            "ob es die Geschwindigkeit auf {tempo} ändern kann",
            "passe das Tempo auf {tempo}",
            "passe das Tempo auf {tempo} an",
            "passe das Tempo auf {tempo} b. p. m.",
            "passe das Tempo auf {tempo} b. p. m. an",
            "passe das Tempo auf {tempo} beats per minute",
            "passe das Tempo auf {tempo} beats per minute an",
            "passe das Tempo auf {tempo} beats pro minute",
            "passe das Tempo auf {tempo} beats pro minute an",
            "passe das Tempo auf {tempo} bpm",
            "passe das Tempo auf {tempo} bpm an",
            "passe das Tempo auf {tempo} schläge per minute",
            "passe das Tempo auf {tempo} schläge per minute an",
            "passe das Tempo auf {tempo} schläge pro minute",
            "passe das Tempo auf {tempo} schläge pro minute an",
            "passe die Geschwindigkeit auf {tempo}",
            "passe die Geschwindigkeit auf {tempo} an",
            "passe die Geschwindigkeit auf {tempo} b. p. m.",
            "passe die Geschwindigkeit auf {tempo} b. p. m. an",
            "passe die Geschwindigkeit auf {tempo} beats per minute",
            "passe die Geschwindigkeit auf {tempo} beats per minute an",
            "passe die Geschwindigkeit auf {tempo} beats pro minute",
            "passe die Geschwindigkeit auf {tempo} beats pro minute an",
            "passe die Geschwindigkeit auf {tempo} bpm",
            "passe die Geschwindigkeit auf {tempo} bpm an",
            "passe die Geschwindigkeit auf {tempo} schläge per minute",
            "passe die Geschwindigkeit auf {tempo} schläge per minute an",
            "passe die Geschwindigkeit auf {tempo} schläge pro minute",
            "passe die Geschwindigkeit auf {tempo} schläge pro minute an",
            "stelle das Tempo auf {tempo}",
            "stelle das Tempo auf {tempo} an",
            "stelle das Tempo auf {tempo} b. p. m.",
            "stelle das Tempo auf {tempo} b. p. m. an",
            "stelle das Tempo auf {tempo} beats per minute",
            "stelle das Tempo auf {tempo} beats per minute an",
            "stelle das Tempo auf {tempo} beats pro minute",
            "stelle das Tempo auf {tempo} beats pro minute an",
            "stelle das Tempo auf {tempo} bpm",
            "stelle das Tempo auf {tempo} bpm an",
            "stelle das Tempo auf {tempo} schläge per minute",
            "stelle das Tempo auf {tempo} schläge per minute an",
            "stelle das Tempo auf {tempo} schläge pro minute",
            "stelle das Tempo auf {tempo} schläge pro minute an",
            "stelle die Geschwindigkeit auf {tempo}",
            "stelle die Geschwindigkeit auf {tempo} an",
            "stelle die Geschwindigkeit auf {tempo} b. p. m.",
            "stelle die Geschwindigkeit auf {tempo} b. p. m. an",
            "stelle die Geschwindigkeit auf {tempo} beats per minute",
            "stelle die Geschwindigkeit auf {tempo} beats per minute an",
            "stelle die Geschwindigkeit auf {tempo} beats pro minute",
            "stelle die Geschwindigkeit auf {tempo} beats pro minute an",
            "stelle die Geschwindigkeit auf {tempo} bpm",
            "stelle die Geschwindigkeit auf {tempo} bpm an",
            "stelle die Geschwindigkeit auf {tempo} schläge per minute",
            "stelle die Geschwindigkeit auf {tempo} schläge per minute an",
            "stelle die Geschwindigkeit auf {tempo} schläge pro minute",
            "stelle die Geschwindigkeit auf {tempo} schläge pro minute an",
            "verändere auf {tempo}",
            "verändere auf {tempo} b. p. m.",
            "verändere auf {tempo} beats per minute",
            "verändere auf {tempo} beats pro minute",
            "verändere auf {tempo} bpm",
            "verändere auf {tempo} schläge per minute",
            "verändere auf {tempo} schläge pro minute",
            "verändere das Tempo auf {tempo}",
            "verändere das Tempo auf {tempo} an",
            "verändere das Tempo auf {tempo} b. p. m.",
            "verändere das Tempo auf {tempo} b. p. m. an",
            "verändere das Tempo auf {tempo} beats per minute",
            "verändere das Tempo auf {tempo} beats per minute an",
            "verändere das Tempo auf {tempo} beats pro minute",
            "verändere das Tempo auf {tempo} beats pro minute an",
            "verändere das Tempo auf {tempo} bpm",
            "verändere das Tempo auf {tempo} bpm an",
            "verändere das Tempo auf {tempo} schläge per minute",
            "verändere das Tempo auf {tempo} schläge per minute an",
            "verändere das Tempo auf {tempo} schläge pro minute",
            "verändere das Tempo auf {tempo} schläge pro minute an",
            "verändere die Geschwindigkeit auf {tempo}",
            "verändere die Geschwindigkeit auf {tempo} an",
            "verändere die Geschwindigkeit auf {tempo} b. p. m.",
            "verändere die Geschwindigkeit auf {tempo} b. p. m. an",
            "verändere die Geschwindigkeit auf {tempo} beats per minute",
            "verändere die Geschwindigkeit auf {tempo} beats per minute an",
            "verändere die Geschwindigkeit auf {tempo} beats pro minute",
            "verändere die Geschwindigkeit auf {tempo} beats pro minute an",
            "verändere die Geschwindigkeit auf {tempo} bpm",
            "verändere die Geschwindigkeit auf {tempo} bpm an",
            "verändere die Geschwindigkeit auf {tempo} schläge per minute",
            "verändere die Geschwindigkeit auf {tempo} schläge per minute an",
            "verändere die Geschwindigkeit auf {tempo} schläge pro minute",
            "verändere die Geschwindigkeit auf {tempo} schläge pro minute an",
            "ändere auf {tempo}",
            "ändere auf {tempo} b. p. m.",
            "ändere auf {tempo} beats per minute",
            "ändere auf {tempo} beats pro minute",
            "ändere auf {tempo} bpm",
            "ändere auf {tempo} schläge per minute",
            "ändere auf {tempo} schläge pro minute",
            "ändere das Tempo auf {tempo}",
            "ändere das Tempo auf {tempo} an",
            "ändere das Tempo auf {tempo} b. p. m.",
            "ändere das Tempo auf {tempo} b. p. m. an",
            "ändere das Tempo auf {tempo} beats per minute",
            "ändere das Tempo auf {tempo} beats per minute an",
            "ändere das Tempo auf {tempo} beats pro minute",
            "ändere das Tempo auf {tempo} beats pro minute an",
            "ändere das Tempo auf {tempo} bpm",
            "ändere das Tempo auf {tempo} bpm an",
            "ändere das Tempo auf {tempo} schläge per minute",
            "ändere das Tempo auf {tempo} schläge per minute an",
            "ändere das Tempo auf {tempo} schläge pro minute",
            "ändere das Tempo auf {tempo} schläge pro minute an",
            "ändere die Geschwindigkeit auf {tempo}",
            "ändere die Geschwindigkeit auf {tempo} an",
            "ändere die Geschwindigkeit auf {tempo} b. p. m.",
            "ändere die Geschwindigkeit auf {tempo} b. p. m. an",
            "ändere die Geschwindigkeit auf {tempo} beats per minute",
            "ändere die Geschwindigkeit auf {tempo} beats per minute an",
            "ändere die Geschwindigkeit auf {tempo} beats pro minute",
            "ändere die Geschwindigkeit auf {tempo} beats pro minute an",
            "ändere die Geschwindigkeit auf {tempo} bpm",
            "ändere die Geschwindigkeit auf {tempo} bpm an",
            "ändere die Geschwindigkeit auf {tempo} schläge per minute",
            "ändere die Geschwindigkeit auf {tempo} schläge per minute an",
            "ändere die Geschwindigkeit auf {tempo} schläge pro minute",
            "ändere die Geschwindigkeit auf {tempo} schläge pro minute an"
          ]
        },
        {
          "name": "ChangeTempoByIntent",
          "slots": [
            {
              "name": "tempo",
              "type": "AMAZON.NUMBER",
              "samples": [
                "{tempo} bpm",
                "{tempo} b. p. m.",
                "{tempo}",
                "{tempo} Beats per minute",
                "{tempo} Schläge pro Minute",
                "{tempo} Schläge per Minute"
              ]
            },
            {
              "name": "direction",
              "type": "DIRECTIONPACE",
              "samples": [
                "{direction}"
              ]
            }
          ],
          "samples": [
            "ob das das Tempo um {tempo} {direction} b. p. m. kann",
            "ob das das Tempo um {tempo} {direction} beats per minute kann",
            "ob das das Tempo um {tempo} {direction} beats pro minute kann",
            "ob das das Tempo um {tempo} {direction} bpm kann",
            "ob das das Tempo um {tempo} {direction} kann",
            "ob das das Tempo um {tempo} {direction} schläge per minute kann",
            "ob das das Tempo um {tempo} {direction} schläge pro minute kann",
            "ob das die Geschwindigkeit um {tempo} {direction} b. p. m. kann",
            "ob das die Geschwindigkeit um {tempo} {direction} beats per minute kann",
            "ob das die Geschwindigkeit um {tempo} {direction} beats pro minute kann",
            "ob das die Geschwindigkeit um {tempo} {direction} bpm kann",
            "ob das die Geschwindigkeit um {tempo} {direction} kann",
            "ob das die Geschwindigkeit um {tempo} {direction} schläge per minute kann",
            "ob das die Geschwindigkeit um {tempo} {direction} schläge pro minute kann",
            "ob es das Tempo um {tempo} {direction} b. p. m. kann",
            "ob es das Tempo um {tempo} {direction} beats per minute kann",
            "ob es das Tempo um {tempo} {direction} beats pro minute kann",
            "ob es das Tempo um {tempo} {direction} bpm kann",
            "ob es das Tempo um {tempo} {direction} kann",
            "ob es das Tempo um {tempo} {direction} schläge per minute kann",
            "ob es das Tempo um {tempo} {direction} schläge pro minute kann",
            "ob es die Geschwindigkeit um {tempo} {direction} b. p. m. kann",
            "ob es die Geschwindigkeit um {tempo} {direction} beats per minute kann",
            "ob es die Geschwindigkeit um {tempo} {direction} beats pro minute kann",
            "ob es die Geschwindigkeit um {tempo} {direction} bpm kann",
            "ob es die Geschwindigkeit um {tempo} {direction} kann",
            "ob es die Geschwindigkeit um {tempo} {direction} schläge per minute kann",
            "ob es die Geschwindigkeit um {tempo} {direction} schläge pro minute kann",
            "{direction} Geschwindigkeit um {tempo}",
            "{direction} Geschwindigkeit um {tempo} b. p. m.",
            "{direction} Geschwindigkeit um {tempo} beats per minute",
            "{direction} Geschwindigkeit um {tempo} beats pro minute",
            "{direction} Geschwindigkeit um {tempo} bpm",
            "{direction} Geschwindigkeit um {tempo} schläge per minute",
            "{direction} Geschwindigkeit um {tempo} schläge pro minute",
            "{direction} Tempo um {tempo}",
            "{direction} Tempo um {tempo} b. p. m.",
            "{direction} Tempo um {tempo} beats per minute",
            "{direction} Tempo um {tempo} beats pro minute",
            "{direction} Tempo um {tempo} bpm",
            "{direction} Tempo um {tempo} schläge per minute",
            "{direction} Tempo um {tempo} schläge pro minute"
          ]
        },
        {
          "name": "ChangeTempoIntent",
          "slots": [
            {
              "name": "adjectivePace",
              "type": "ADJECTIVEPACE"
            },
            {
              "name": "direction",
              "type": "DIRECTIONPACE",
              "samples": [
                "{direction}"
              ]
            }
          ],
          "samples": [
            "mach mal {adjectivePace} {direction}",
            "mach mal {direction}",
            "ob das das Tempo {adjectivePace} {direction} einstellen kann",
            "ob das das Tempo {adjectivePace} {direction} kann",
            "ob das das Tempo {adjectivePace} {direction} stellen kann",
            "ob das das Tempo {adjectivePace} {direction} ändern kann",
            "ob das das Tempo {direction} einstellen kann",
            "ob das das Tempo {direction} kann",
            "ob das das Tempo {direction} stellen kann",
            "ob das das Tempo {direction} ändern kann",
            "ob das die Geschwindigkeit {adjectivePace} {direction} einstellen kann",
            "ob das die Geschwindigkeit {adjectivePace} {direction} kann",
            "ob das die Geschwindigkeit {adjectivePace} {direction} stellen kann",
            "ob das die Geschwindigkeit {adjectivePace} {direction} ändern kann",
            "ob das die Geschwindigkeit {direction} einstellen kann",
            "ob das die Geschwindigkeit {direction} kann",
            "ob das die Geschwindigkeit {direction} stellen kann",
            "ob das die Geschwindigkeit {direction} ändern kann",
            "ob es das Tempo {adjectivePace} {direction} einstellen kann",
            "ob es das Tempo {adjectivePace} {direction} kann",
            "ob es das Tempo {adjectivePace} {direction} stellen kann",
            "ob es das Tempo {adjectivePace} {direction} ändern kann",
            "ob es das Tempo {direction} einstellen kann",
            "ob es das Tempo {direction} kann",
            "ob es das Tempo {direction} stellen kann",
            "ob es das Tempo {direction} ändern kann",
            "ob es die Geschwindigkeit {adjectivePace} {direction} einstellen kann",
            "ob es die Geschwindigkeit {adjectivePace} {direction} kann",
            "ob es die Geschwindigkeit {adjectivePace} {direction} stellen kann",
            "ob es die Geschwindigkeit {adjectivePace} {direction} ändern kann",
            "ob es die Geschwindigkeit {direction} einstellen kann",
            "ob es die Geschwindigkeit {direction} kann",
            "ob es die Geschwindigkeit {direction} stellen kann",
            "ob es die Geschwindigkeit {direction} ändern kann",
            "stell mal {adjectivePace} {direction}",
            "stell mal {direction}",
            "{direction}",
            "{direction} das Tempo",
            "{direction} das Tempo des",
            "{direction} das Tempo hoch",
            "{direction} das Tempo vom",
            "{direction} das Tempo von",
            "{direction} des",
            "{direction} die Geschwindigkeit",
            "{direction} die Geschwindigkeit des",
            "{direction} die Geschwindigkeit hoch",
            "{direction} die Geschwindigkeit vom",
            "{direction} die Geschwindigkeit von",
            "{direction} hoch",
            "{direction} vom",
            "{direction} von",
            "ändere mal {adjectivePace} {direction}",
            "ändere mal {direction}"
          ]
        }
      ],
      "types": [
        {
          "name": "ADJECTIVEPACE",
          "values": [
            {
              "id": "muchMore",
              "name": {
                "value": "ganz viel",
                "synonyms": [
                  "verdammt viel",
                  "sehr viel",
                  "sehr stark",
                  "verdammt stark"
                ]
              }
            },
            {
              "id": "much",
              "name": {
                "value": "viel",
                "synonyms": [
                  "stark"
                ]
              }
            }
          ]
        },
        {
          "name": "DIRECTIONPACE",
          "values": [
            {
              "id": "faster",
              "name": {
                "value": "schneller",
                "synonyms": [
                  "erhöhe",
                  "erhöhen",
                  "höher",
                  "hoch",
                  "mehr"
                ]
              }
            },
            {
              "id": "slower",
              "name": {
                "value": "langsamer",
                "synonyms": [
                  "verringere",
                  "verringern",
                  "verringer",
                  "tiefer",
                  "sachter",
                  "weniger",
                  "langsam",
                  "langsamer"
                ]
              }
            }
          ]
        }
      ]
    },
    "dialog": {
      "intents": [
        {
          "name": "StartMetronomIntent",
          "confirmationRequired": false,
          "prompts": {},
          "slots": [
            {
              "name": "tempo",
              "type": "AMAZON.NUMBER",
              "confirmationRequired": false,
              "elicitationRequired": true,
              "prompts": {
                "elicitation": "Elicit.Slot.83698185944.250119768402"
              }
            }
          ]
        },
        {
          "name": "ChangeTempoToIntent",
          "confirmationRequired": false,
          "prompts": {},
          "slots": [
            {
              "name": "tempo",
              "type": "AMAZON.NUMBER",
              "confirmationRequired": false,
              "elicitationRequired": true,
              "prompts": {
                "elicitation": "Elicit.Slot.362757539689.186094126864"
              }
            }
          ]
        },
        {
          "name": "ChangeTempoByIntent",
          "confirmationRequired": false,
          "prompts": {},
          "slots": [
            {
              "name": "tempo",
              "type": "AMAZON.NUMBER",
              "confirmationRequired": false,
              "elicitationRequired": true,
              "prompts": {
                "elicitation": "Elicit.Slot.978190277390.850570926614"
              }
            },
            {
              "name": "direction",
              "type": "DIRECTIONPACE",
              "confirmationRequired": false,
              "elicitationRequired": true,
              "prompts": {
                "elicitation": "Elicit.Slot.1030600748934.813630090419"
              }
            }
          ]
        },
        {
          "name": "ChangeTempoIntent",
          "confirmationRequired": false,
          "prompts": {},
          "slots": [
            {
              "name": "adjectivePace",
              "type": "ADJECTIVEPACE",
              "confirmationRequired": false,
              "elicitationRequired": false,
              "prompts": {}
            },
            {
              "name": "direction",
              "type": "DIRECTIONPACE",
              "confirmationRequired": false,
              "elicitationRequired": true,
              "prompts": {
                "elicitation": "Elicit.Slot.1371863046580.577991460968"
              }
            }
          ]
        }
      ]
    },
    "prompts": [
      {
        "id": "Confirm.Intent.83698185944",
        "variations": [
          {
            "type": "PlainText",
            "value": "Auf wie viel Schläge pro Minute soll ich das Metronom einstellen"
          }
        ]
      },
      {
        "id": "Elicit.Slot.83698185944.250119768402",
        "variations": [
          {
            "type": "PlainText",
            "value": "Auf wie viel Schläge pro Minute soll ich das Metronom einstellen"
          }
        ]
      },
      {
        "id": "Elicit.Slot.362757539689.186094126864",
        "variations": [
          {
            "type": "PlainText",
            "value": "Auf wie viel Schläge pro Minute soll ich das Metronom einstellen"
          }
        ]
      },
      {
        "id": "Elicit.Slot.1030600748934.813630090419",
        "variations": [
          {
            "type": "PlainText",
            "value": "Soll ich die Geschwindigkeit erhöhen oder verringern"
          },
          {
            "type": "PlainText",
            "value": "Soll ich das Tempo erhöhen oder verringen"
          }
        ]
      },
      {
        "id": "Elicit.Slot.1371863046580.577991460968",
        "variations": [
          {
            "type": "PlainText",
            "value": "Soll ich die Geschwindigkeit erhöhen oder verringern"
          },
          {
            "type": "PlainText",
            "value": "Soll ich das Tempo erhöhen oder verringern"
          }
        ]
      },
      {
        "id": "Elicit.Slot.978190277390.850570926614",
        "variations": [
          {
            "type": "PlainText",
            "value": "Auf wie viel Schläge pro Minute soll ich das Metronom einstellen"
          }
        ]
      }
    ]
  }
}